{
  "user_responses": {
    "single_user": {
      "code": 200,
      "meta": null,
      "data": {
        "id": 1,
        "name": "John Doe",
        "email": "john.doe@example.com",
        "gender": "male",
        "status": "active",
        "created_at": "2024-01-15T10:30:00Z",
        "updated_at": "2024-01-15T10:30:00Z"
      }
    },
    "user_list": {
      "code": 200,
      "meta": {
        "pagination": {
          "total": 100,
          "pages": 10,
          "page": 1,
          "limit": 10
        }
      },
      "data": [
        {
          "id": 1,
          "name": "John Doe",
          "email": "john.doe@example.com",
          "gender": "male",
          "status": "active"
        }
      ]
    },
    "user_created": {
      "code": 201,
      "meta": null,
      "data": {
        "id": 123,
        "name": "New User",
        "email": "newuser@example.com",
        "gender": "male",
        "status": "active",
        "created_at": "2024-01-20T10:00:00Z",
        "updated_at": "2024-01-20T10:00:00Z"
      }
    }
  },
  "post_responses": {
    "single_post": {
      "code": 200,
      "meta": null,
      "data": {
        "id": 1,
        "user_id": 1,
        "title": "Test Post",
        "body": "This is a test post body content.",
        "created_at": "2024-01-15T10:30:00Z",
        "updated_at": "2024-01-15T10:30:00Z"
      }
    },
    "post_list": {
      "code": 200,
      "meta": {
        "pagination": {
          "total": 50,
          "pages": 5,
          "page": 1,
          "limit": 10
        }
      },
      "data": [
        {
          "id": 1,
          "user_id": 1,
          "title": "Test Post",
          "body": "This is a test post."
        }
      ]
    }
  },
  "error_responses": {
    "validation_error": {
      "code": 422,
      "meta": null,
      "data": [
        {
          "field": "email",
          "message": "has already been taken"
        },
        {
          "field": "name",
          "message": "can't be blank"
        }
      ]
    },
    "not_found": {
      "code": 404,
      "meta": null,
      "data": {
        "message": "Resource not found"
      }
    },
    "unauthorized": {
      "code": 401,
      "meta": null,
      "data": {
        "message": "Authentication failed"
      }
    }
  }
}

